%!PS-Adobe-3.0 
%%Creator: MATLAB, The Mathworks, Inc. Version 7.10.0.499 (R2010a). Operating System: Linux 2.6.35-30-generic-pae #56-Ubuntu SMP Mon Jul 11 21:51:12 UTC 2011 i686.
%%Title: ./grid.ps
%%CreationDate: 07/27/2011  16:20:39
%%DocumentNeededFonts: Helvetica
%%DocumentProcessColors: Cyan Magenta Yellow Black
%%LanguageLevel: 2
%%Pages: (atend)
%%BoundingBox: (atend)
%%EndComments

%%BeginProlog
% MathWorks dictionary
/MathWorks 160 dict begin
% definition operators
/bdef {bind def} bind def
/ldef {load def} bind def
/xdef {exch def} bdef
/xstore {exch store} bdef
% operator abbreviations
/c  /clip ldef
/cc /concat ldef
/cp /closepath ldef
/gr /grestore ldef
/gs /gsave ldef
/mt /moveto ldef
/np /newpath ldef
/cm /currentmatrix ldef
/sm /setmatrix ldef
/rm /rmoveto ldef
/rl /rlineto ldef
/s {show newpath} bdef
/sc {setcmykcolor} bdef
/sr /setrgbcolor ldef
/sg /setgray ldef
/w /setlinewidth ldef
/j /setlinejoin ldef
/cap /setlinecap ldef
/rc {rectclip} bdef
/rf {rectfill} bdef
% page state control
/pgsv () def
/bpage {/pgsv save def} bdef
/epage {pgsv restore} bdef
/bplot /gsave ldef
/eplot {stroke grestore} bdef
% orientation switch
/portraitMode 0 def /landscapeMode 1 def /rotateMode 2 def
% coordinate system mappings
/dpi2point 0 def
% font control
/FontSize 0 def
/FMS {/FontSize xstore findfont [FontSize 0 0 FontSize neg 0 0]
  makefont setfont} bdef
/reencode {exch dup where {pop load} {pop StandardEncoding} ifelse
  exch dup 3 1 roll findfont dup length dict begin
  { 1 index /FID ne {def}{pop pop} ifelse } forall
  /Encoding exch def currentdict end definefont pop} bdef
/isroman {findfont /CharStrings get /Agrave known} bdef
/FMSR {3 1 roll 1 index dup isroman {reencode} {pop pop} ifelse
  exch FMS} bdef
/csm {1 dpi2point div -1 dpi2point div scale neg translate
 dup landscapeMode eq {pop -90 rotate}
  {rotateMode eq {90 rotate} if} ifelse} bdef
% line types: solid, dotted, dashed, dotdash
/SO { [] 0 setdash } bdef
/DO { [.5 dpi2point mul 4 dpi2point mul] 0 setdash } bdef
/DA { [6 dpi2point mul] 0 setdash } bdef
/DD { [.5 dpi2point mul 4 dpi2point mul 6 dpi2point mul 4
  dpi2point mul] 0 setdash } bdef
% macros for lines and objects
/L {lineto stroke} bdef
/MP {3 1 roll moveto 1 sub {rlineto} repeat} bdef
/AP {{rlineto} repeat} bdef
/PDlw -1 def
/W {/PDlw currentlinewidth def setlinewidth} def
/PP {closepath eofill} bdef
/DP {closepath stroke} bdef
/MR {4 -2 roll moveto dup  0 exch rlineto exch 0 rlineto
  neg 0 exch rlineto closepath} bdef
/FR {MR stroke} bdef
/PR {MR fill} bdef
/L1i {{currentfile picstr readhexstring pop} image} bdef
/tMatrix matrix def
/MakeOval {newpath tMatrix currentmatrix pop translate scale
0 0 1 0 360 arc tMatrix setmatrix} bdef
/FO {MakeOval stroke} bdef
/PO {MakeOval fill} bdef
/PD {currentlinewidth 2 div 0 360 arc fill
   PDlw -1 eq not {PDlw w /PDlw -1 def} if} def
/FA {newpath tMatrix currentmatrix pop translate scale
  0 0 1 5 -2 roll arc tMatrix setmatrix stroke} bdef
/PA {newpath tMatrix currentmatrix pop	translate 0 0 moveto scale
  0 0 1 5 -2 roll arc closepath tMatrix setmatrix fill} bdef
/FAn {newpath tMatrix currentmatrix pop translate scale
  0 0 1 5 -2 roll arcn tMatrix setmatrix stroke} bdef
/PAn {newpath tMatrix currentmatrix pop translate 0 0 moveto scale
  0 0 1 5 -2 roll arcn closepath tMatrix setmatrix fill} bdef
/vradius 0 def /hradius 0 def /lry 0 def
/lrx 0 def /uly 0 def /ulx 0 def /rad 0 def
/MRR {/vradius xdef /hradius xdef /lry xdef /lrx xdef /uly xdef
  /ulx xdef newpath tMatrix currentmatrix pop ulx hradius add uly
  vradius add translate hradius vradius scale 0 0 1 180 270 arc 
  tMatrix setmatrix lrx hradius sub uly vradius add translate
  hradius vradius scale 0 0 1 270 360 arc tMatrix setmatrix
  lrx hradius sub lry vradius sub translate hradius vradius scale
  0 0 1 0 90 arc tMatrix setmatrix ulx hradius add lry vradius sub
  translate hradius vradius scale 0 0 1 90 180 arc tMatrix setmatrix
  closepath} bdef
/FRR {MRR stroke } bdef
/PRR {MRR fill } bdef
/MlrRR {/lry xdef /lrx xdef /uly xdef /ulx xdef /rad lry uly sub 2 div def
  newpath tMatrix currentmatrix pop ulx rad add uly rad add translate
  rad rad scale 0 0 1 90 270 arc tMatrix setmatrix lrx rad sub lry rad
  sub translate rad rad scale 0 0 1 270 90 arc tMatrix setmatrix
  closepath} bdef
/FlrRR {MlrRR stroke } bdef
/PlrRR {MlrRR fill } bdef
/MtbRR {/lry xdef /lrx xdef /uly xdef /ulx xdef /rad lrx ulx sub 2 div def
  newpath tMatrix currentmatrix pop ulx rad add uly rad add translate
  rad rad scale 0 0 1 180 360 arc tMatrix setmatrix lrx rad sub lry rad
  sub translate rad rad scale 0 0 1 0 180 arc tMatrix setmatrix
  closepath} bdef
/FtbRR {MtbRR stroke } bdef
/PtbRR {MtbRR fill } bdef
/stri 6 array def /dtri 6 array def
/smat 6 array def /dmat 6 array def
/tmat1 6 array def /tmat2 6 array def /dif 3 array def
/asub {/ind2 exch def /ind1 exch def dup dup
  ind1 get exch ind2 get sub exch } bdef
/tri_to_matrix {
  2 0 asub 3 1 asub 4 0 asub 5 1 asub
  dup 0 get exch 1 get 7 -1 roll astore } bdef
/compute_transform {
  dmat dtri tri_to_matrix tmat1 invertmatrix 
  smat stri tri_to_matrix tmat2 concatmatrix } bdef
/ds {stri astore pop} bdef
/dt {dtri astore pop} bdef
/db {2 copy /cols xdef /rows xdef mul dup string
  currentfile 
  3 index 0 eq {/ASCIIHexDecode filter}
  {/ASCII85Decode filter 3 index 2 eq {/RunLengthDecode filter} if }
  ifelse exch readstring pop
  /bmap xdef pop pop} bdef
/it {gs np dtri aload pop moveto lineto lineto cp c
  cols rows 8 compute_transform 
  {bmap} image gr}bdef
/il {newpath moveto lineto stroke}bdef
currentdict end def
%%EndProlog

%%BeginSetup
MathWorks begin

0 cap

end
%%EndSetup

%%Page: 1 1
%%BeginPageSetup
%%PageBoundingBox:   136   227   499   602
MathWorks begin
bpage
%%EndPageSetup

%%BeginObject: obj1
bplot

/dpi2point 12 def
portraitMode 0216 7344 csm

 1422   110  4358  4505 rc
85 dict begin %Colortable dictionary
/c0 { 0.000000 0.000000 0.000000 sr} bdef
/c1 { 1.000000 1.000000 1.000000 sr} bdef
/c2 { 0.900000 0.000000 0.000000 sr} bdef
/c3 { 0.000000 0.820000 0.000000 sr} bdef
/c4 { 0.000000 0.000000 0.800000 sr} bdef
/c5 { 0.910000 0.820000 0.320000 sr} bdef
/c6 { 1.000000 0.260000 0.820000 sr} bdef
/c7 { 0.000000 0.820000 0.820000 sr} bdef
c0
1 j
1 sg
   0    0 6913 5186 rf
6 w
gs 899 389 5357 4226 rc
/mwscm { [/Indexed /DeviceRGB 63
  <
    00008f 00009f 0000af 0000bf 0000cf 0000df 0000ef 0000ff 000fff 001fff 
    002fff 003fff 004fff 005fff 006fff 007fff 008fff 009fff 00afff 00bfff 
    00cfff 00dfff 00efff 00ffff 0fffef 1fffdf 2fffcf 3fffbf 4fffaf 5fff9f 
    6fff8f 7fff7f 8fff6f 9fff5f afff4f bfff3f cfff2f dfff1f efff0f ffff00 
    ffef00 ffdf00 ffcf00 ffbf00 ffaf00 ff9f00 ff8f00 ff7f00 ff6f00 ff5f00 
    ff4f00 ff3f00 ff2f00 ff1f00 ff0f00 ff0000 ef0000 df0000 cf0000 bf0000 
    af0000 9f0000 8f0000 7f0000 
  >
] setcolorspace } bdef mwscm
gs np 1423 389 mt 0 4226 rl 4308 0 rl 0 -4226 rl cp c np
[4308 0 0 4308 1423 348] cc
<< % Image dictionary
  /ImageType 1
  /Width 51 /Height 51
  /BitsPerComponent 8
  /Decode [0 255]
  /ImageMatrix [51.000000 0 0 51.000000 0 0]
  /DataSource currentfile
  /ASCII85Decode filter
  /RunLengthDecode filter
>>
image
jo>Mb!X&Z3r<NN1"Tnf,h#Ird!X&]6$k<dY%L`XK"9JV]!"f55"9o2C&f)<%(DIDh#R(;2huFAj!sJu@
'H/&<,U+9H&e,*L!Wh6[&cr1@$kjR(.5!8*-m9KA$jQn:iW'Yn!X/l@(Eb1_2`WfP.NoW?$3^J3irBbo
!sT,G)C7$q4[2(h0.%YP$jQk8irBep!sT/I*%*I$5!M4k0dn(X%L<1=!TX4q!<WQ8'HJMR2EEo[2(g6t
((U]T!Wh?^'`nLC%29d-.ki_60J+[s)\ihh"Te_c!#5P<#7M7a+=/B`-RBu[*#B4s#R(81j8]nr":#>I
(E=J<*ZQ(9(DRPn$O6e9!TX4q!X&`9&/5ot(DRSq&.f?^$jd+@!WhB_$NU;3#7:qR',(rf%/pS<$OR1F
"Tned!"Ar1"9o2B%hK6\$3p_=rW`Q1"Tnf,j8]Vi!WrW5$k<aV$3p_9"T8K+"9JT)j8]Vi!WrW4$OmOQ
#mUV9"9&E*!s8T*irBGf!WrW4$4I=N#mUY5"9\f/!WiD^!##A7!sJr;$O[:J#6b55!s8T+!<M0["T\Z,
"U>A5$4-tC"U"o0!WiB'i;`u]!WrT2r<W`8"pG,3!WiB'huEl\!WrT2r<NW5"U"o/!W`>Z!!E<(!sJo-
#6b;7!s/N)h#IQY!WrQ/rWWN0"9S],!SdY`!<N?+"9er3"9S]+!S[SV!<N<)rWE?+!s/K(g&M0T!Wr<&
!s/N)!SIGR!<N*"!<E5Q!;QZH!;ceJ!.b-$!.b-$!.b-$!.b-_!.Y
~>
gr
gs 1534 451 3715 3985 rc
4 W
0 sg
3300 2313 PD
4 W
3879 2357 PD
4 W
3164 2353 PD
4 W
1547 1582 PD
4 W
4715 1300 PD
4 W
4777 1420 PD
4 W
3275 3667 PD
4 W
5235 2445 PD
4 W
1593 2162 PD
4 W
1554 3804 PD
4 W
3434 2861 PD
4 W
3352 464 PD
4 W
5220 4206 PD
4 W
1815 2673 PD
4 W
4529 4297 PD
4 W
3584 4298 PD
4 W
3042 2044 PD
4 W
3497 2511 PD
4 W
4189 2665 PD
4 W
2292 643 PD
4 W
5052 3369 PD
4 W
4732 2902 PD
4 W
2746 1803 PD
4 W
4104 3875 PD
4 W
4446 3117 PD
4 W
1745 1687 PD
4 W
2995 3746 PD
4 W
3213 2619 PD
4 W
2226 2118 PD
4 W
3699 2419 PD
4 W
3308 3690 PD
4 W
2629 2498 PD
4 W
3811 4341 PD
4 W
4637 4422 PD
4 W
4185 3393 PD
4 W
1747 959 PD
4 W
2018 3220 PD
4 W
1762 3441 PD
4 W
5155 4293 PD
4 W
1984 3435 PD
4 W
4468 1128 PD
4 W
4423 862 PD
4 W
4387 1111 PD
4 W
4351 940 PD
4 W
4402 901 PD
4 W
4418 1253 PD
4 W
4419 944 PD
4 W
4313 818 PD
4 W
4512 966 PD
4 W
4368 868 PD
4 W
4473 926 PD
4 W
4404 915 PD
4 W
4302 1081 PD
4 W
4448 1073 PD
4 W
4297 951 PD
4 W
4271 1012 PD
4 W
4302 1082 PD
4 W
4512 966 PD
4 W
4353 969 PD
4 W
4515 1031 PD
4 W
4238 1003 PD
4 W
4432 849 PD
4 W
4381 1095 PD
4 W
4502 1030 PD
4 W
4338 933 PD
4 W
4496 1007 PD
4 W
4449 975 PD
4 W
4601 965 PD
4 W
4356 1082 PD
4 W
4209 1051 PD
4 W
4572 899 PD
4 W
4376 976 PD
4 W
4630 911 PD
4 W
4440 977 PD
4 W
4498 941 PD
4 W
4459 872 PD
4 W
4408 1021 PD
4 W
4313 818 PD
4 W
4408 1117 PD
4 W
4274 991 PD
4 W
4440 1209 PD
4 W
4311 1083 PD
4 W
4365 940 PD
4 W
4333 908 PD
4 W
4380 916 PD
4 W
4383 1138 PD
4 W
4344 1142 PD
4 W
4227 990 PD
4 W
4343 1181 PD
4 W
4418 968 PD
4 W
4540 957 PD
4 W
4524 939 PD
4 W
4412 1031 PD
4 W
4246 975 PD
4 W
4353 1006 PD
4 W
4536 948 PD
4 W
4325 809 PD
4 W
4592 1045 PD
4 W
4556 881 PD
4 W
4607 1061 PD
4 W
4615 817 PD
4 W
4450 887 PD
4 W
4548 1001 PD
4 W
4404 1009 PD
4 W
4390 903 PD
4 W
4560 951 PD
4 W
4536 997 PD
4 W
4393 983 PD
4 W
4431 1051 PD
4 W
4357 952 PD
4 W
4473 1114 PD
4 W
4455 1102 PD
4 W
4525 1084 PD
4 W
4482 979 PD
4 W
4354 1058 PD
4 W
4590 959 PD
4 W
4401 895 PD
4 W
4465 804 PD
4 W
4271 1012 PD
4 W
4459 872 PD
4 W
4536 948 PD
4 W
4604 828 PD
4 W
4402 1136 PD
4 W
4617 1016 PD
4 W
4499 1022 PD
4 W
4289 1040 PD
4 W
4350 1032 PD
4 W
4462 1115 PD
4 W
4474 1030 PD
4 W
4536 995 PD
4 W
4536 1002 PD
4 W
4580 1049 PD
4 W
4599 927 PD
4 W
4383 996 PD
4 W
4552 929 PD
4 W
4377 824 PD
4 W
4413 1013 PD
4 W
4476 936 PD
4 W
4451 848 PD
4 W
4400 1133 PD
4 W
4484 1068 PD
4 W
4521 993 PD
4 W
4169 864 PD
4 W
4544 1144 PD
4 W
4412 1270 PD
4 W
4267 1052 PD
4 W
4541 1056 PD
4 W
4453 1012 PD
4 W
4381 1095 PD
4 W
4358 1166 PD
4 W
4515 1016 PD
4 W
4472 1111 PD
4 W
4458 1021 PD
4 W
4326 1179 PD
4 W
4440 850 PD
4 W
4497 1226 PD
4 W
4574 1176 PD
4 W
4532 1020 PD
4 W
4567 1032 PD
4 W
4408 1062 PD
4 W
4372 1035 PD
4 W
4295 1095 PD
4 W
4611 871 PD
4 W
4624 1038 PD
4 W
4515 1016 PD
4 W
4591 1024 PD
4 W
4365 940 PD
4 W
4367 1004 PD
4 W
4411 1094 PD
4 W
4353 969 PD
4 W
4479 964 PD
4 W
4430 906 PD
4 W
4452 1038 PD
4 W
4608 1012 PD
4 W
4588 962 PD
4 W
4636 825 PD
4 W
4426 1025 PD
4 W
4372 1079 PD
4 W
4390 903 PD
4 W
4397 940 PD
4 W
4473 917 PD
4 W
4349 1048 PD
4 W
4302 955 PD
4 W
4512 966 PD
4 W
4453 1100 PD
4 W
4794 1439 PD
4 W
4592 1045 PD
4 W
4532 1020 PD
4 W
4509 1086 PD
4 W
4503 744 PD
4 W
4367 1102 PD
4 W
4322 909 PD
4 W
4321 882 PD
4 W
4228 928 PD
4 W
4507 1065 PD
4 W
4332 1130 PD
4 W
4412 1270 PD
4 W
4367 1045 PD
4 W
4381 1151 PD
4 W
4445 876 PD
4 W
4372 1079 PD
4 W
4211 1116 PD
4 W
4332 1130 PD
4 W
4380 1196 PD
4 W
4404 1087 PD
4 W
4548 1001 PD
4 W
4408 942 PD
4 W
4541 840 PD
4 W
4607 1061 PD
4 W
4326 1179 PD
4 W
4426 899 PD
4 W
4551 1011 PD
4 W
4485 1111 PD
4 W
4456 973 PD
4 W
4445 1086 PD
4 W
4420 886 PD
4 W
4527 999 PD
4 W
4576 1071 PD
4 W
4338 1075 PD
4 W
4499 1022 PD
4 W
4463 964 PD
4 W
4404 915 PD
4 W
4338 994 PD
4 W
4521 941 PD
4 W
4310 864 PD
4 W
4320 1003 PD
4 W
4596 1087 PD
4 W
4350 1032 PD
4 W
4579 965 PD
4 W
4246 975 PD
4 W
4350 893 PD
4 W
4330 1067 PD
4 W
4468 964 PD
4 W
4488 1083 PD
4 W
4467 848 PD
4 W
4476 1042 PD
4 W
4351 1000 PD
4 W
4538 1161 PD
4 W
4615 817 PD
4 W
4527 924 PD
4 W
4522 1088 PD
4 W
4492 1058 PD
4 W
4317 928 PD
4 W
4422 1031 PD
4 W
4313 818 PD
4 W
4581 1135 PD
4 W
4515 1031 PD
4 W
4703 1020 PD
4 W
4483 778 PD
4 W
4527 999 PD
4 W
4380 1006 PD
4 W
4525 1054 PD
4 W
4274 991 PD
4 W
4521 993 PD
4 W
4447 1019 PD
4 W
4351 1000 PD
4 W
4469 970 PD
4 W
4473 917 PD
4 W
4367 949 PD
4 W
4449 996 PD
4 W
4438 1025 PD
4 W
4437 1151 PD
4 W
4642 893 PD
4 W
4443 838 PD
4 W
4590 1019 PD
4 W
4588 962 PD
4 W
4440 977 PD
4 W
4547 920 PD
4 W
4608 1012 PD
4 W
4381 994 PD
4 W
4536 1089 PD
4 W
4719 1126 PD
4 W
4463 964 PD
4 W
4557 1135 PD
4 W
4404 915 PD
4 W
4421 1197 PD
4 W
4469 1191 PD
4 W
4367 949 PD
4 W
4234 1101 PD
4 W
4343 910 PD
4 W
4578 1019 PD
4 W
4418 1253 PD
4 W
4512 962 PD
4 W
4382 934 PD
4 W
4270 1111 PD
4 W
4448 1073 PD
4 W
4512 948 PD
4 W
4322 1044 PD
4 W
4372 1079 PD
4 W
4469 1191 PD
4 W
4119 883 PD
4 W
4535 923 PD
4 W
4525 854 PD
4 W
4348 888 PD
4 W
4515 1031 PD
4 W
4532 956 PD
4 W
4478 984 PD
4 W
4512 962 PD
4 W
4448 1027 PD
4 W
4420 959 PD
4 W
4415 847 PD
4 W
4364 1042 PD
4 W
4187 901 PD
4 W
4439 1038 PD
4 W
4512 948 PD
4 W
4302 1082 PD
4 W
4630 911 PD
4 W
4595 1039 PD
4 W
4575 1195 PD
4 W
4675 1198 PD
4 W
4585 1257 PD
4 W
4299 974 PD
4 W
4034 1486 PD
4 W
4337 928 PD
4 W
4585 997 PD
4 W
4712 841 PD
4 W
4469 850 PD
4 W
4670 1033 PD
4 W
4376 1120 PD
4 W
4485 893 PD
4 W
4317 928 PD
4 W
4457 1044 PD
4 W
4320 1003 PD
4 W
4374 1118 PD
4 W
4238 1003 PD
4 W
4365 940 PD
4 W
4375 1094 PD
4 W
4475 1149 PD
4 W
4294 981 PD
4 W
4438 1025 PD
4 W
4531 849 PD
4 W
4317 867 PD
4 W
4439 1027 PD
4 W
4317 867 PD
4 W
4678 1112 PD
4 W
4453 1012 PD
4 W
4468 964 PD
4 W
4333 908 PD
4 W
4410 954 PD
4 W
4535 923 PD
4 W
4507 1065 PD
4 W
4413 969 PD
4 W
4387 988 PD
4 W
4422 960 PD
4 W
4517 1004 PD
4 W
4473 1041 PD
4 W
4520 979 PD
4 W
4487 923 PD
4 W
4541 1056 PD
4 W
4328 899 PD
4 W
4305 1057 PD
4 W
4259 983 PD
4 W
4455 816 PD
4 W
4408 935 PD
4 W
4447 937 PD
4 W
4315 883 PD
4 W
4333 951 PD
4 W
4300 981 PD
4 W
4398 899 PD
4 W
4330 1067 PD
4 W
4282 995 PD
4 W
4371 1264 PD
4 W
4535 1056 PD
4 W
4436 1112 PD
4 W
4382 1087 PD
4 W
4497 1020 PD
4 W
4235 828 PD
4 W
4527 999 PD
4 W
4595 886 PD
4 W
4614 1033 PD
4 W
4348 888 PD
4 W
4278 1102 PD
4 W
4465 1010 PD
4 W
4265 898 PD
4 W
4489 1075 PD
4 W
4472 1111 PD
4 W
4473 920 PD
4 W
4580 1049 PD
4 W
4552 1075 PD
4 W
4541 1056 PD
4 W
4614 1033 PD
4 W
4471 1049 PD
4 W
4248 964 PD
4 W
4536 790 PD
4 W
4400 1133 PD
4 W
4341 992 PD
4 W
4518 1018 PD
4 W
4640 972 PD
4 W
4248 964 PD
4 W
4282 995 PD
4 W
4394 1058 PD
4 W
4549 1035 PD
4 W
4535 1056 PD
4 W
4408 942 PD
4 W
4454 1017 PD
4 W
4591 1024 PD
4 W
4593 1023 PD
4 W
4239 959 PD
4 W
4358 1081 PD
4 W
4653 856 PD
4 W
4412 897 PD
4 W
4396 1106 PD
4 W
4478 1065 PD
4 W
4580 871 PD
4 W
4448 1027 PD
4 W
4235 853 PD
4 W
4051 896 PD
4 W
4374 1118 PD
4 W
4613 882 PD
4 W
4446 1023 PD
4 W
4516 1034 PD
4 W
4578 844 PD
4 W
4338 939 PD
4 W
4289 933 PD
4 W
4369 1010 PD
4 W
4474 1018 PD
4 W
4558 895 PD
4 W
4541 1036 PD
4 W
4207 688 PD
4 W
4707 919 PD
4 W
4685 1110 PD
4 W
4381 1151 PD
4 W
4388 958 PD
4 W
4468 1128 PD
4 W
4350 893 PD
4 W
4476 1042 PD
4 W
4579 1056 PD
4 W
4596 1087 PD
4 W
4427 965 PD
4 W
4549 1022 PD
4 W
4410 954 PD
4 W
4380 1036 PD
4 W
4531 849 PD
4 W
4570 965 PD
4 W
4413 754 PD
4 W
4422 1031 PD
4 W
4486 947 PD
4 W
4504 963 PD
4 W
4548 1001 PD
4 W
4497 1053 PD
4 W
4330 973 PD
4 W
4491 995 PD
4 W
4562 1048 PD
4 W
4274 1026 PD
4 W
4410 954 PD
4 W
4467 848 PD
4 W
4473 917 PD
4 W
4663 1151 PD
4 W
4502 1030 PD
4 W
4567 1032 PD
4 W
4691 1075 PD
4 W
4598 1147 PD
4 W
4337 936 PD
4 W
4296 916 PD
4 W
4471 1049 PD
4 W
4464 1066 PD
4 W
4455 816 PD
4 W
4345 924 PD
4 W
4536 1002 PD
4 W
4380 916 PD
4 W
4495 1203 PD
4 W
4350 1032 PD
4 W
4668 977 PD
4 W
4553 1044 PD
4 W
4051 896 PD
4 W
4531 969 PD
4 W
4505 882 PD
4 W
4457 972 PD
4 W
4467 878 PD
4 W
4119 883 PD
4 W
4405 1022 PD
4 W
4465 981 PD
4 W
4302 955 PD
4 W
4300 1119 PD
4 W
4412 796 PD
4 W
4327 988 PD
4 W
4543 1241 PD
4 W
4445 876 PD
4 W
4504 963 PD
4 W
4291 912 PD
4 W
4539 1066 PD
4 W
4437 934 PD
4 W
4343 910 PD
4 W
4447 937 PD
4 W
4246 975 PD
4 W
4233 1122 PD
4 W
4548 1001 PD
4 W
4572 1066 PD
4 W
4500 1045 PD
4 W
4485 957 PD
4 W
4235 828 PD
4 W
4585 1257 PD
4 W
4370 800 PD
4 W
4438 1025 PD
4 W
4381 865 PD
4 W
4515 909 PD
4 W
4382 1087 PD
4 W
4450 916 PD
4 W
4527 999 PD
4 W
4440 850 PD
4 W
4439 1146 PD
4 W
4678 1112 PD
4 W
4478 984 PD
4 W
4494 1185 PD
4 W
4537 1074 PD
4 W
4359 951 PD
4 W
4433 920 PD
4 W
4363 972 PD
4 W
4478 999 PD
4 W
4509 915 PD
4 W
4512 948 PD
4 W
4422 960 PD
4 W
4486 1072 PD
4 W
4589 956 PD
4 W
4516 1079 PD
4 W
4480 1043 PD
4 W
4299 974 PD
4 W
4302 1042 PD
4 W
4430 1175 PD
4 W
4159 1094 PD
4 W
4442 900 PD
4 W
4354 1058 PD
4 W
4294 981 PD
4 W
4414 1216 PD
4 W
4383 996 PD
4 W
4413 1117 PD
4 W
4595 1039 PD
4 W
4471 989 PD
4 W
4305 1045 PD
4 W
4330 973 PD
4 W
4455 951 PD
4 W
4302 1004 PD
4 W
4579 965 PD
4 W
4207 688 PD
4 W
4411 1094 PD
4 W
4407 846 PD
4 W
4221 1107 PD
4 W
4592 1031 PD
4 W
4461 1099 PD
4 W
4402 1192 PD
4 W
4543 985 PD
4 W
4590 1039 PD
4 W
4430 1175 PD
4 W
4368 1035 PD
4 W
4449 1010 PD
4 W
4691 1075 PD
4 W
4376 884 PD
4 W
4467 848 PD
4 W
4486 1105 PD
4 W
4344 916 PD
4 W
4574 1083 PD
4 W
4525 1054 PD
4 W
4313 1072 PD
4 W
4278 943 PD
4 W
4408 935 PD
4 W
4501 1086 PD
4 W
4347 1192 PD
4 W
4775 1062 PD
4 W
4431 900 PD
4 W
4420 1001 PD
4 W
4418 1037 PD
4 W
4500 1045 PD
4 W
4579 1056 PD
4 W
4424 1012 PD
4 W
4592 1031 PD
4 W
4388 1048 PD
4 W
4503 744 PD
4 W
4578 1148 PD
4 W
4430 906 PD
4 W
4475 1149 PD
4 W
4524 939 PD
4 W
4356 1250 PD
4 W
4359 1125 PD
4 W
4457 1044 PD
4 W
4438 1134 PD
4 W
4637 1247 PD
4 W
4525 1054 PD
4 W
4691 1075 PD
4 W
4400 1133 PD
4 W
4282 995 PD
4 W
4494 1185 PD
4 W
4478 944 PD
4 W
4469 1011 PD
4 W
4538 1161 PD
4 W
4294 981 PD
4 W
4503 1048 PD
4 W
4484 988 PD
4 W
4674 1084 PD
4 W
4460 874 PD
4 W
4488 1001 PD
4 W
4515 1016 PD
4 W
4207 688 PD
4 W
4501 1051 PD
4 W
4380 1006 PD
4 W
4642 893 PD
4 W
4635 1106 PD
4 W
4624 1038 PD
4 W
4332 1130 PD
4 W
4415 977 PD
4 W
4390 985 PD
4 W
4469 1011 PD
4 W
4381 1151 PD
4 W
4535 881 PD
4 W
4553 1019 PD
4 W
4534 1133 PD
4 W
4432 1078 PD
4 W
4484 1068 PD
4 W
4257 1012 PD
4 W
4592 1045 PD
4 W
4359 993 PD
4 W
4431 820 PD
4 W
4756 803 PD
4 W
4313 818 PD
4 W
4317 1130 PD
4 W
4428 1123 PD
4 W
4399 993 PD
4 W
4449 1010 PD
4 W
4756 803 PD
4 W
4534 1203 PD
4 W
4373 997 PD
4 W
4344 1142 PD
4 W
4484 848 PD
4 W
4505 882 PD
4 W
4383 996 PD
4 W
4388 1010 PD
4 W
4483 1060 PD
4 W
4207 688 PD
4 W
4508 1001 PD
4 W
4478 944 PD
4 W
4557 967 PD
4 W
4484 866 PD
4 W
4578 1148 PD
4 W
4335 1147 PD
4 W
4537 1030 PD
4 W
4327 988 PD
4 W
4338 939 PD
4 W
4497 1020 PD
4 W
4469 953 PD
4 W
4527 877 PD
4 W
4423 1212 PD
4 W
4434 1059 PD
4 W
4365 981 PD
4 W
4359 1125 PD
4 W
4257 1012 PD
4 W
4512 948 PD
4 W
4598 949 PD
4 W
4432 849 PD
4 W
4557 1135 PD
4 W
4372 1035 PD
4 W
4461 981 PD
4 W
4525 1054 PD
4 W
4627 856 PD
4 W
4337 928 PD
4 W
4295 1040 PD
4 W
4561 1077 PD
4 W
4447 937 PD
4 W
4610 1177 PD
4 W
4459 1022 PD
4 W
4413 950 PD
4 W
4496 1007 PD
4 W
4507 1140 PD
4 W
4535 1061 PD
4 W
4498 1216 PD
4 W
4570 965 PD
4 W
4614 994 PD
4 W
4541 1056 PD
4 W
4420 959 PD
4 W
4433 848 PD
4 W
4403 1020 PD
4 W
4327 988 PD
4 W
4034 1486 PD
4 W
4668 977 PD
4 W
4485 799 PD
4 W
4525 1084 PD
4 W
4680 1099 PD
4 W
4485 1111 PD
4 W
4617 1016 PD
4 W
4322 970 PD
4 W
4463 911 PD
4 W
4527 877 PD
4 W
4479 1129 PD
4 W
4445 1086 PD
4 W
4343 910 PD
4 W
4214 928 PD
4 W
4460 961 PD
4 W
4332 1130 PD
4 W
4486 947 PD
4 W
4255 1085 PD
4 W
4516 1034 PD
4 W
4473 917 PD
4 W
4709 936 PD
4 W
4608 1012 PD
4 W
4571 1024 PD
4 W
4408 942 PD
4 W
4495 1069 PD
4 W
4438 1151 PD
4 W
4407 907 PD
4 W
4322 1044 PD
4 W
4637 1008 PD
4 W
4515 871 PD
4 W
4384 1157 PD
4 W
4239 959 PD
4 W
4476 1042 PD
4 W
4382 934 PD
4 W
4209 1051 PD
4 W
4453 1012 PD
4 W
4382 1087 PD
4 W
4455 951 PD
4 W
4300 981 PD
4 W
4356 1083 PD
4 W
4591 1012 PD
4 W
4460 998 PD
4 W
4504 963 PD
4 W
4558 1120 PD
4 W
4435 1172 PD
4 W
4367 949 PD
4 W
4406 1016 PD
4 W
4612 1075 PD
4 W
4617 1016 PD
4 W
4453 792 PD
4 W
4456 969 PD
4 W
4557 1142 PD
4 W
4395 1005 PD
4 W
4596 988 PD
4 W
4393 1018 PD
4 W
4574 1176 PD
4 W
4386 1305 PD
4 W
4415 950 PD
4 W
4430 1175 PD
4 W
4235 828 PD
4 W
4374 981 PD
4 W
4274 991 PD
4 W
4455 816 PD
4 W
4235 828 PD
4 W
4501 1051 PD
4 W
4342 941 PD
4 W
4357 1071 PD
4 W
4473 1041 PD
4 W
4644 961 PD
4 W
4433 973 PD
4 W
4499 882 PD
4 W
4581 1087 PD
4 W
4371 940 PD
4 W
4475 1077 PD
4 W
4515 994 PD
4 W
4351 940 PD
4 W
4390 1080 PD
4 W
4257 979 PD
4 W
4387 1111 PD
4 W
4419 944 PD
4 W
4536 1158 PD
4 W
4474 1030 PD
4 W
4697 1132 PD
4 W
4497 825 PD
4 W
4495 1203 PD
4 W
4674 1084 PD
4 W
4469 850 PD
4 W
4342 941 PD
4 W
4431 1051 PD
4 W
4474 1030 PD
4 W
4343 910 PD
4 W
4504 963 PD
4 W
4380 1036 PD
4 W
4590 959 PD
4 W
4582 1095 PD
4 W
4354 933 PD
4 W
4576 1113 PD
4 W
4418 968 PD
4 W
4515 915 PD
4 W
4394 1103 PD
4 W
4358 1081 PD
4 W
4456 874 PD
4 W
4434 1059 PD
4 W
4271 1012 PD
4 W
4278 943 PD
4 W
4357 1171 PD
4 W
4473 926 PD
4 W
4485 1029 PD
4 W
4387 799 PD
4 W
4402 1059 PD
4 W
4529 859 PD
4 W
4377 944 PD
4 W
4642 893 PD
4 W
4352 1045 PD
4 W
4492 1074 PD
4 W
4387 799 PD
4 W
4405 1022 PD
4 W
4329 1172 PD
4 W
4489 1075 PD
4 W
4465 1031 PD
4 W
4350 893 PD
4 W
4269 1180 PD
4 W
4295 1095 PD
4 W
4504 988 PD
4 W
4682 714 PD
4 W
4402 1059 PD
4 W
4486 947 PD
4 W
4459 872 PD
4 W
4399 993 PD
4 W
4384 1071 PD
4 W
4393 983 PD
4 W
4598 1147 PD
4 W
4350 1116 PD
4 W
4423 862 PD
4 W
4614 994 PD
4 W
4549 1146 PD
4 W
4507 1140 PD
4 W
4473 1041 PD
4 W
4436 1112 PD
4 W
4393 1018 PD
4 W
4376 1120 PD
4 W
4668 977 PD
4 W
4541 1056 PD
4 W
4299 1090 PD
4 W
4426 1025 PD
4 W
4404 1087 PD
4 W
4476 1045 PD
4 W
4541 840 PD
4 W
4437 934 PD
4 W
4452 1038 PD
4 W
4387 799 PD
4 W
4481 1054 PD
4 W
4439 1027 PD
4 W
4590 1019 PD
4 W
4326 1179 PD
4 W
4388 1048 PD
4 W
4375 1021 PD
4 W
4434 1059 PD
4 W
4480 1047 PD
4 W
4481 1170 PD
4 W
4418 1020 PD
4 W
4403 1114 PD
4 W
4427 965 PD
4 W
4404 915 PD
4 W
4221 1107 PD
4 W
4496 1007 PD
4 W
4535 895 PD
4 W
4358 1081 PD
4 W
4581 1034 PD
4 W
4294 981 PD
4 W
4423 1040 PD
4 W
4475 981 PD
4 W
4413 1117 PD
4 W
4350 1032 PD
4 W
4524 939 PD
4 W
4479 1045 PD
4 W
4549 1050 PD
4 W
4423 1040 PD
4 W
4460 874 PD
4 W
4510 964 PD
4 W
4448 1027 PD
4 W
4580 871 PD
4 W
4521 993 PD
4 W
4460 874 PD
4 W
4342 948 PD
4 W
4383 996 PD
4 W
4332 1006 PD
4 W
4496 982 PD
4 W
4550 969 PD
4 W
4507 1065 PD
4 W
4479 1129 PD
4 W
4443 872 PD
4 W
4403 861 PD
4 W
4452 948 PD
4 W
4536 995 PD
4 W
4488 1083 PD
4 W
4371 1067 PD
4 W
4496 982 PD
4 W
4407 1099 PD
4 W
4302 955 PD
4 W
4499 963 PD
4 W
4408 1021 PD
4 W
4453 1100 PD
4 W
4421 1197 PD
4 W
4402 1192 PD
4 W
4579 965 PD
4 W
4368 868 PD
4 W
4479 971 PD
4 W
4409 791 PD
4 W
4508 820 PD
4 W
4462 1130 PD
4 W
4504 988 PD
4 W
4453 1100 PD
4 W
4302 955 PD
4 W
4382 1087 PD
4 W
4460 874 PD
4 W
4313 818 PD
4 W
4469 850 PD
4 W
4289 946 PD
4 W
4581 1034 PD
4 W
4299 1090 PD
4 W
4441 1064 PD
4 W
4310 1005 PD
4 W
4507 1065 PD
4 W
4498 941 PD
4 W
4558 1120 PD
4 W
4591 1024 PD
4 W
4456 983 PD
4 W
4521 989 PD
4 W
4453 1012 PD
4 W
4444 883 PD
4 W
4376 1087 PD
4 W
4413 754 PD
4 W
4456 969 PD
4 W
4520 979 PD
4 W
4532 956 PD
4 W
4380 916 PD
4 W
4476 1098 PD
4 W
4473 1041 PD
4 W
4567 1032 PD
4 W
4512 948 PD
4 W
4553 1044 PD
4 W
4633 940 PD
4 W
4572 1211 PD
4 W
4532 1020 PD
4 W
4613 1188 PD
4 W
4522 1088 PD
4 W
4394 911 PD
4 W
4413 754 PD
4 W
4386 1004 PD
4 W
4327 1005 PD
4 W
4463 911 PD
4 W
4438 1151 PD
4 W
4489 1027 PD
4 W
4422 1031 PD
4 W
4148 1034 PD
4 W
4481 1054 PD
4 W
4322 970 PD
4 W
4469 1011 PD
4 W
4438 1151 PD
4 W
4483 1060 PD
4 W
4703 1020 PD
4 W
4449 996 PD
4 W
4543 991 PD
4 W
4450 966 PD
4 W
4433 973 PD
4 W
4418 1020 PD
4 W
4551 827 PD
4 W
4387 1111 PD
4 W
4590 972 PD
4 W
4505 1065 PD
4 W
4377 944 PD
4 W
4327 988 PD
4 W
4543 985 PD
4 W
4489 1043 PD
4 W
4444 797 PD
4 W
4421 1197 PD
4 W
4287 1072 PD
4 W
4501 873 PD
4 W
4338 912 PD
4 W
4338 933 PD
4 W
4344 1142 PD
4 W
4467 878 PD
4 W
4447 937 PD
4 W
4485 1109 PD
4 W
4598 1147 PD
4 W
4430 1076 PD
4 W
4507 970 PD
4 W
4283 1043 PD
4 W
4453 1012 PD
4 W
4334 948 PD
4 W
4498 1083 PD
4 W
4359 1044 PD
4 W
4512 1062 PD
4 W
4668 977 PD
4 W
4412 897 PD
4 W
4617 1016 PD
4 W
4578 1019 PD
4 W
4572 878 PD
4 W
4310 1005 PD
4 W
4466 1075 PD
4 W
4475 963 PD
4 W
4503 744 PD
4 W
4334 948 PD
4 W
4425 965 PD
4 W
4365 940 PD
4 W
4697 1132 PD
4 W
4330 973 PD
4 W
4615 904 PD
4 W
4445 933 PD
4 W
4501 1016 PD
4 W
4551 1011 PD
4 W
4512 962 PD
4 W
4420 959 PD
4 W
4572 1066 PD
4 W
4196 1059 PD
4 W
4493 951 PD
4 W
4613 882 PD
4 W
4373 997 PD
4 W
4579 1152 PD
4 W
4493 1130 PD
4 W
4515 1016 PD
4 W
4590 959 PD
4 W
4536 997 PD
4 W
4382 1020 PD
4 W
4461 981 PD
4 W
4501 1051 PD
4 W
4557 1135 PD
4 W
4486 947 PD
gr

0 sg
gs 4466 755 147 147 rc
  36   36 4539  828 FO
gr

gr

0 sg
%%IncludeResource: font Helvetica
/Helvetica /ISOLatin1Encoding 120 FMSR

3424  294 mt 
(t = 55) s

end %%Color Dict

eplot
%%EndObject

epage
end

showpage

%%Trailer
%%BoundingBox:   136   227   499   602
%%Pages: 001
%%EOF
